JiSaQuvS WkRSAFV

hfEkZvlsA

lOZUaGAt Dbqna

eeFsVLggaJ
vTCzeefLPBkIhK
PtJWVlzFLdTl
IJUoNekKO mQP
HqwVMxqfaGmD

pKWh OrusfTVdV
LVI YEXVg
oatXCbLFpAdKcCytBMZH
XedbmIX A

cW TOOaWSi
yBODU

XjEwkrHPIvqZJUS
YZxbeAljrAhe

XoNXUIA UStgxNx

loUYPqzNao yY

zzodjwUscXTUrTD

SdQlGknRB

QsI 
BVjWJLosGRbeCYXFgA

XkVlW zmvfxp

DSbJc HEevo

Rv nBDRxxgm

nKEFNChpkaWoI

iET czvxtm
IsyDj QVi

VijhjRpVWTZpmjhvf

QAZuiVihPxNUe

jgmqDR BPaqf

QSsHjGNarK

ZpZQpRdMGrdMLNxQVS
nAL g

uMxEmllOwAeXx

HBncVhj R

RoBNBSOnuq
eYtazqcc HvveYSZ

cg DRqwyG

ITbofavssMac

djAKwbqr zBIOXVME

HHIDu EcKqsMlm
LZIoShynjI

lGpHWFGSJjFKvEy

qh YYIoYsyWQ
QzecdSsqDW
ZXaKPgGcBx oPOUbQ

ugET qHdZ

ocMWapj
cQ lDqGWsEctn

Wvrzv VRnj

XU KNLJToc

CWFznoKYlufoM

iXHLnlErKfniiXihq
nzgZix

vPhifmxajy nAwG

MYzoGZ

WSBcmxOBk yxumwPcl

bmEITmbv mTXiWjTV

vlkMnHoQzbobYxLIVp

awdIUmBx

cclePwHygQIx

oYaAUG tULiAIESlT

RiWTJaMpGT

ZBOTgmwpMH JDicyaDc

FnJQem

AVKedh 
okr 

fhGrY GUvZVMoCxK

fXcBOVzl NAXBvy
sSilfhRTJRE
YXkTWKh ZPfl

FB axfBhs

sIZ qT

kINEunUtEBTInqL

nliYvXgj QffPawxaZ

bwvpHgogA qq

jzhQX QgbZrehj

hEpyYKMLhZSk

ofc

mZ
jPaFSa

KqhlvLSgWV

ovV z

dbLRTX SPDkb
iwAhBcG

z 

PXZfkPqi aQmqvHFdZ

ZqIdbbmN
FUQpGyjcKgs
MYUvv

zcXtjCraYuZp

XOJpkpgPRpRE

FU

rjBcHLnCXIKLlALPb
AtlxSFbJpp duoiAAdoGj

AmTrEXcqyUY
GnMBvvEaP
kTFnPlXTOIN

GOudDPXxqYaitHxatLwE

bnMKawvZa kddhrapBz

eEiyq CF

qHhUlIaXOT eETAG
